projects - 데이터저널리즘 2조 과제
…
# 검거율이 아닌 발생건수를 비교하는 이유 : ddos 같은 범죄유형의 경우 발생건수가 얼마 되지 않아 검거율을 비교하는 게 의미가 없다고 판단하였다. 통계적/논리적으로 유의미한 결론을 내기 위하여 발생건수가 충분히 많은 범죄유형 한정으로 소분류의 검거율을 비교하기로 한다.

# 경찰청 홈페이지 데이터를 엑셀로 옮기고, 그 데이터를 다시 data66이라는 이름으로 가져온다. 그 다음 피벗 함수를 이용해 시각화가 가능한 길쭉한 형태로 바꿔준다. 

data66<-read_excel("정보통신망침해범죄_발생건수.xlsx")|>
  pivot_longer(
    cols = -연도, # '연도' 열을 제외한 나머지 열을 변환합니다.
    names_to = "범죄유형", # 열 이름을 '범죄유형'으로 설정합니다.
    values_to = "건수" # 값들을 '건수'로 설정합니다.
  ) 

print(data66)

# A tibble: 36 × 3
    연도 범죄유형      건수
   <dbl> <chr>        <dbl>
 1  2014 해킹          1648
 2  2014 DDoS            26
 3  2014 악성프로그램   130
 4  2014 기타           487
 5  2015 해킹          2247
 6  2015 DDoS            40
 7  2015 악성프로그램   166
 8  2015 기타           701
 9  2016 해킹          1847
10  2016 DDoS           192
# ℹ 26 more rows
…
#정보통신망침해범죄 유형 중 발생건수가 가장 많은 유형은 '해킹' 유형인 것으로 나타났다. 

data77<-read_excel("정보통신망이용범죄.xlsx")|>
  pivot_longer(
    cols = -연도, # '연도' 열을 제외한 나머지 열을 변환합니다.
    names_to = "범죄유형", # 열 이름을 '범죄유형'으로 설정합니다.
    values_to = "건수" # 값들을 '건수'로 설정합니다.
  ) 

print(data77)

# A tibble: 45 × 3
    연도 범죄유형          건수
   <dbl> <chr>            <dbl>
 1  2014 사이버사기       56667
 2  2014 사이버금융범죄   15596
 3  2014 개인위치정보침해   939
 4  2014 사이버저작권침해 14168
 5  2014 기타              2149
 6  2015 사이버사기       81849
 7  2015 사이버금융범죄   14686
 8  2015 개인위치정보침해   609
 9  2015 사이버저작권침해 18770
10  2015 기타              2448
# ℹ 35 more rows
…
#정보통신망이용범죄 중 발생건수가 가장 많은 유형은 '사이버사기'인 것으로 나타났다. 

data88<-read_excel("불법콘텐츠범죄.xlsx")|>
  pivot_longer(
    cols = -연도, # '연도' 열을 제외한 나머지 열을 변환합니다.
    names_to = "범죄유형", # 열 이름을 '범죄유형'으로 설정합니다.
    values_to = "건수" # 값들을 '건수'로 설정합니다.
  ) 

print(data88)

# A tibble: 36 × 3
    연도 범죄유형            건수
   <dbl> <chr>              <dbl>
 1  2014 사이버성폭력        4354
 2  2014 사이버도박          4271
 3  2014 사이버명예훼손모욕  8880
 4  2014 기타                 794
 5  2015 사이버성폭력        4244
 6  2015 사이버도박          3352
 7  2015 사이버명예훼손모욕 15043
 8  2015 기타                 524
 9  2016 사이버성폭력        3777
10  2016 사이버도박          9538
# ℹ 26 more rows
…
